<?xml version="1.0" standalone="no"?>
<!DOCTYPE svg PUBLIC "-//W3C//DTD SVG 20010904//EN"
 "http://www.w3.org/TR/2001/REC-SVG-20010904/DTD/svg10.dtd">
<svg version="1.0" xmlns="http://www.w3.org/2000/svg"
 width="800.000000pt" height="800.000000pt" viewBox="0 0 800.000000 800.000000"
 preserveAspectRatio="xMidYMid meet">
<metadata>
Created by potrace 1.14, written by Peter Selinger 2001-2017
</metadata>
<g transform="translate(0.000000,800.000000) scale(0.100000,-0.100000)"
fill="#000000" stroke="none">
<path d="M2221 6839 c-13 -5 -21 -12 -18 -15 3 -3 18 1 34 10 31 17 21 20 -16
5z"/>
<path d="M5735 6841 c3 -5 19 -14 35 -20 17 -5 28 -6 25 -2 -3 5 -19 14 -35
20 -17 5 -28 6 -25 2z"/>
<path d="M3730 6819 c-218 -25 -477 -95 -647 -174 -29 -14 -53 -27 -53 -30 0
-2 6 -2 14 1 20 8 28 -24 8 -35 -15 -10 -15 -10 2 -11 20 0 20 0 0 -15 -12
-10 -1 -8 36 6 220 86 458 145 672 168 188 21 410 13 688 -23 26 -4 37 -3 27
2 -22 9 -23 18 -2 39 9 9 13 19 8 23 -11 11 -143 38 -243 50 -99 12 -403 11
-510 -1z m-643 -195 c-3 -3 -12 -4 -19 -1 -8 3 -5 6 6 6 11 1 17 -2 13 -5z"/>
<path d="M1820 6781 c0 -5 5 -13 10 -16 6 -3 10 -2 10 4 0 5 -4 13 -10 16 -5
3 -10 2 -10 -4z"/>
<path d="M6145 6780 c-3 -5 1 -10 10 -10 9 0 13 5 10 10 -3 6 -8 10 -10 10 -2
0 -7 -4 -10 -10z"/>
<path d="M2013 6503 c9 -2 25 -2 35 0 9 3 1 5 -18 5 -19 0 -27 -2 -17 -5z"/>
<path d="M5933 6503 c9 -2 25 -2 35 0 9 3 1 5 -18 5 -19 0 -27 -2 -17 -5z"/>
<path d="M1438 6348 c12 -12 25 -18 29 -14 4 4 -1 14 -11 22 -31 22 -43 17
-18 -8z"/>
<path d="M6532 6358 c-19 -19 -14 -30 8 -18 11 6 20 15 20 20 0 14 -14 12 -28
-2z"/>
<path d="M1685 6120 c-15 -6 -9 -9 25 -9 34 0 40 3 25 9 -11 5 -22 9 -25 9 -3
0 -14 -4 -25 -9z"/>
<path d="M6255 6120 c-4 -6 9 -10 32 -9 30 0 34 2 18 9 -27 12 -43 12 -50 0z"/>
<path d="M6512 6055 c-6 -14 -7 -25 -2 -25 9 0 25 39 18 46 -3 2 -10 -7 -16
-21z"/>
<path d="M1460 6058 c0 -9 5 -20 10 -23 13 -8 13 5 0 25 -8 13 -10 13 -10 -2z"/>
<path d="M5846 5933 c-6 -14 -5 -15 5 -6 7 7 10 15 7 18 -3 3 -9 -2 -12 -12z"/>
<path d="M5871 5920 c0 -8 6 -24 14 -34 8 -11 13 -27 10 -37 -4 -12 0 -16 16
-15 12 0 24 -6 26 -14 3 -9 1 -11 -4 -5 -12 16 -38 12 -38 -5 0 -9 8 -14 20
-12 15 2 17 1 6 -6 -7 -6 -10 -16 -6 -23 4 -8 -3 -3 -14 11 -11 14 -18 32 -15
40 4 12 2 12 -7 3 -9 -9 -4 -23 23 -60 55 -75 145 -234 203 -356 263 -558 292
-1222 79 -1794 -68 -184 -190 -421 -274 -533 -15 -19 -30 -44 -34 -54 -5 -16
-4 -17 9 -6 20 16 19 6 -1 -25 -13 -20 -14 -28 -4 -40 10 -11 9 -18 -4 -30
-23 -23 -20 -31 4 -10 11 10 20 25 20 33 0 9 3 12 6 9 13 -12 141 173 220 318
27 50 71 140 98 200 59 136 69 157 79 170 4 6 15 19 23 30 15 20 15 19 5 -2
-6 -12 -11 -28 -10 -35 1 -24 40 84 65 181 58 223 82 474 68 697 -7 114 -8
123 -15 76 -4 -29 -10 -56 -14 -60 -4 -4 -5 6 -1 21 4 19 3 26 -4 22 -6 -4
-10 10 -10 38 0 116 -71 439 -135 614 -79 215 -261 543 -358 644 -19 20 -37
43 -40 50 -4 11 -6 11 -6 -1z m44 -2870 c-3 -5 -11 -10 -16 -10 -6 0 -7 5 -4
10 3 6 11 10 16 10 6 0 7 -4 4 -10z m-15 -75 c-7 -9 -15 -13 -19 -10 -3 3 1
10 9 15 21 14 24 12 10 -5z"/>
<path d="M5870 5860 c0 -5 5 -10 10 -10 6 0 10 5 10 10 0 6 -4 10 -10 10 -5 0
-10 -4 -10 -10z"/>
<path d="M1999 5843 c-13 -16 -12 -17 4 -4 16 13 21 21 13 21 -2 0 -10 -8 -17
-17z"/>
<path d="M1120 5821 c0 -13 29 -35 37 -28 7 8 -15 37 -28 37 -5 0 -9 -4 -9 -9z"/>
<path d="M6844 5822 c-6 -4 -14 -15 -17 -26 -7 -17 -6 -18 15 -4 23 15 36 38
21 38 -4 0 -13 -4 -19 -8z"/>
<path d="M1974 5808 c-4 -7 -4 -10 1 -6 4 4 15 2 24 -5 14 -11 14 -10 2 6 -16
20 -18 21 -27 5z"/>
<path d="M1926 5735 c-20 -31 -34 -61 -30 -67 4 -6 3 -8 -3 -5 -11 7 -115
-178 -159 -283 -65 -156 -131 -378 -120 -406 3 -8 2 -13 -3 -10 -9 6 -24 -64
-16 -73 3 -2 5 4 5 14 0 14 3 15 14 6 11 -9 16 -2 26 36 56 215 124 399 210
567 33 65 57 123 53 129 -3 7 -3 9 2 5 15 -14 47 52 40 81 -6 24 -5 25 8 7 14
-18 14 -18 22 0 4 10 9 28 11 39 3 17 2 17 -8 -2 -6 -13 -15 -23 -20 -23 -5 0
-4 9 2 20 20 38 3 20 -34 -35z"/>
<path d="M1410 5640 c-11 -7 -6 -10 22 -10 20 0 40 5 43 10 8 13 -45 13 -65 0z"/>
<path d="M6520 5640 c8 -5 26 -10 40 -10 20 0 22 2 10 10 -8 5 -26 10 -40 10
-20 0 -22 -2 -10 -10z"/>
<path d="M1160 5550 c12 -23 24 -40 26 -37 7 7 -22 64 -37 72 -6 4 -1 -12 11
-35z"/>
<path d="M6811 5550 c-12 -22 -18 -40 -13 -40 9 0 45 70 39 76 -2 2 -14 -14
-26 -36z"/>
<path d="M920 5272 c0 -13 39 -46 46 -39 3 3 3 10 -1 16 -9 15 -45 33 -45 23z"/>
<path d="M7040 5267 c-23 -12 -40 -37 -23 -37 11 1 57 40 52 45 -3 2 -15 -1
-29 -8z"/>
<path d="M3870 5190 c-52 -16 -96 -27 -98 -25 -2 2 -19 -3 -38 -11 -18 -8 -50
-17 -71 -20 -21 -3 -44 -11 -50 -16 -7 -6 -13 -8 -13 -5 0 3 -21 -1 -47 -9
-27 -8 -70 -21 -98 -28 -118 -33 -1213 -351 -1277 -372 -27 -9 -48 -19 -48
-24 0 -4 62 -23 138 -42 l137 -34 7 -85 c12 -152 30 -279 39 -279 5 0 9 -16 9
-35 0 -20 5 -35 11 -35 8 0 10 16 5 53 -27 194 -41 367 -31 367 6 0 157 -38
335 -84 285 -73 325 -86 324 -102 0 -10 -18 -128 -39 -262 -43 -275 -43 -275
30 -318 216 -126 829 -169 1345 -94 239 35 437 100 500 165 39 40 39 25 -11
348 -17 109 -29 200 -27 202 2 2 219 67 483 145 263 77 481 143 484 146 11 11
-23 23 -159 58 -80 20 -314 79 -520 131 -206 53 -420 104 -475 116 -55 11
-129 28 -165 38 -93 27 -563 141 -575 140 -5 0 -53 -14 -105 -29z m-364 -731
c54 -28 102 -54 107 -58 4 -4 0 -72 -8 -150 -20 -189 -20 -181 13 -182 15 -1
-23 -5 -84 -10 -94 -7 -293 -44 -348 -65 -14 -5 -16 0 -12 32 3 22 10 100 16
174 6 74 14 164 18 200 l7 64 55 13 c30 6 71 16 90 21 19 6 38 10 41 11 3 1
51 -22 105 -50z"/>
<path d="M1251 5151 c-10 -6 1 -8 30 -4 24 3 46 7 48 9 10 9 -65 3 -78 -5z"/>
<path d="M6678 5153 c12 -2 30 -2 40 0 9 3 -1 5 -23 4 -22 0 -30 -2 -17 -4z"/>
<path d="M958 5044 c6 -11 20 -28 33 -39 l23 -20 -23 32 c-26 38 -49 56 -33
27z"/>
<path d="M7005 5034 c-25 -27 -34 -51 -15 -39 13 8 53 65 45 65 -3 0 -17 -12
-30 -26z"/>
<path d="M853 4695 c33 -29 56 -34 36 -7 -19 24 -31 32 -49 32 -10 -1 -5 -9
13 -25z"/>
<path d="M7112 4704 c-12 -8 -22 -19 -22 -25 0 -11 55 15 65 31 10 15 -18 12
-43 -6z"/>
<path d="M6739 4679 c-10 -6 -4 -9 19 -9 17 0 32 2 32 4 0 9 -39 13 -51 5z"/>
<path d="M1190 4670 c-10 -6 -2 -7 25 -3 49 7 58 13 19 13 -16 0 -36 -5 -44
-10z"/>
<path d="M860 4522 c0 -10 26 -34 50 -47 8 -4 2 6 -14 23 -32 34 -36 37 -36
24z"/>
<path d="M7096 4509 c-30 -23 -36 -45 -7 -28 16 11 46 49 37 49 -2 0 -15 -9
-30 -21z"/>
<path d="M1225 4160 c-8 -13 25 -13 45 0 12 8 9 10 -12 10 -15 0 -30 -4 -33
-10z"/>
<path d="M6710 4160 c8 -5 26 -10 40 -10 20 0 22 2 10 10 -8 5 -26 10 -40 10
-20 0 -22 -2 -10 -10z"/>
<path d="M860 4095 c36 -27 50 -31 50 -15 0 11 -52 40 -71 40 -7 0 2 -11 21
-25z"/>
<path d="M7093 4094 l-28 -25 25 6 c14 4 34 16 45 26 32 31 -8 25 -42 -7z"/>
<path d="M2588 3978 l-4 -43 -13 30 c-11 27 -14 29 -25 13 -17 -24 -24 -23
-28 4 -2 12 -8 23 -15 25 -12 4 -12 -14 0 -34 5 -9 2 -13 -8 -13 -9 0 -14 4
-10 9 3 6 -4 15 -16 22 -18 9 -25 9 -34 -5 -17 -23 -28 -20 -19 6 6 21 5 21
-10 9 -15 -13 -19 -13 -27 0 -7 11 -9 11 -9 -4 0 -10 -4 -15 -10 -12 -14 8
-13 1 5 -43 13 -29 18 -34 25 -22 7 11 10 6 11 -20 0 -19 3 -29 6 -22 2 6 8
10 13 7 4 -3 11 6 14 20 7 27 26 34 26 9 0 -8 5 -12 10 -9 6 3 10 2 10 -3 0
-16 48 -33 54 -19 5 9 7 9 12 0 11 -23 24 -13 24 18 0 17 4 28 10 24 6 -3 10
-17 10 -30 0 -39 17 -38 30 1 10 29 10 45 -1 76 -18 54 -27 56 -31 6z"/>
<path d="M866 3941 c-4 -5 7 -19 23 -30 32 -23 41 -26 41 -12 0 15 -58 52 -64
42z"/>
<path d="M7078 3926 c-18 -13 -25 -36 -10 -36 9 1 52 36 52 44 0 10 -24 6 -42
-8z"/>
<path d="M1070 3919 c0 -5 5 -7 10 -4 6 3 10 8 10 11 0 2 -4 4 -10 4 -5 0 -10
-5 -10 -11z"/>
<path d="M1228 3896 c-15 -13 -45 -27 -67 -31 -23 -4 -43 -10 -46 -15 -8 -12
93 16 121 34 13 9 24 21 24 26 0 13 -1 13 -32 -14z"/>
<path d="M971 3906 c2 -2 15 -9 29 -15 24 -11 24 -11 6 3 -16 13 -49 24 -35
12z"/>
<path d="M1096 3875 c-13 -19 -13 -23 -2 -19 8 3 16 14 19 25 7 25 3 24 -17
-6z"/>
<path d="M6752 3884 c10 -10 20 -15 24 -12 3 4 -5 12 -18 18 -22 12 -22 12 -6
-6z"/>
<path d="M6931 3884 c0 -11 3 -14 6 -6 3 7 2 16 -1 19 -3 4 -6 -2 -5 -13z"/>
<path d="M6803 3858 c16 -10 44 -10 51 0 2 4 -11 8 -29 8 -21 0 -30 -3 -22 -8z"/>
<path d="M1047 3853 c-3 -5 -1 -17 4 -28 6 -17 7 -16 6 8 -1 28 -3 32 -10 20z"/>
<path d="M6995 3846 c-17 -12 -16 -14 18 -25 20 -7 47 -10 59 -8 17 3 14 5 -9
6 -18 0 -33 5 -33 11 0 5 -8 7 -17 4 -15 -5 -15 -3 1 10 24 20 7 21 -19 2z"/>
<path d="M834 3836 c11 -9 24 -16 30 -16 12 0 7 5 -24 19 -24 11 -24 11 -6 -3z"/>
<path d="M6927 3818 c-43 -179 -119 -428 -129 -422 -4 3 -6 9 -3 14 3 4 -4 39
-16 76 -18 58 -30 76 -82 127 l-60 58 -51 -6 c-87 -11 -87 -11 -80 -58 9 -71
42 -170 68 -207 13 -20 42 -48 64 -64 42 -28 122 -47 122 -28 0 24 -107 194
-135 214 -7 5 -6 8 0 8 16 0 77 -66 123 -133 l40 -57 -32 -83 c-60 -151 -177
-397 -189 -397 -1 0 -2 39 -2 88 0 105 -19 148 -92 211 -44 38 -53 41 -105 41
l-58 0 0 -85 c0 -46 5 -107 11 -134 12 -56 63 -136 81 -125 6 4 8 3 4 -4 -8
-13 40 -48 78 -58 28 -7 28 -6 21 27 -9 43 -61 177 -81 207 -8 12 -10 22 -5
22 12 0 62 -80 101 -162 30 -64 31 -67 15 -92 -9 -14 -13 -31 -9 -37 4 -7 3
-9 -3 -6 -14 9 -56 -60 -59 -96 -2 -25 0 -26 11 -10 8 10 9 20 4 21 -5 2 -9 8
-9 14 0 6 7 8 14 5 11 -4 13 -1 9 10 -4 11 -2 14 5 9 8 -4 10 -2 6 7 -3 8 0
18 7 23 8 4 10 3 5 -4 -4 -7 -4 -12 1 -12 4 0 18 18 31 40 l23 40 64 0 c56 0
87 -11 72 -26 -2 -3 -32 -10 -66 -16 -57 -11 -74 -25 -41 -36 8 -3 10 0 5 8
-5 9 -4 11 4 6 6 -4 9 -12 5 -17 -6 -10 55 -40 78 -38 7 0 4 4 -7 9 -29 13 -1
12 51 -1 40 -10 47 -10 60 7 9 11 13 13 9 7 -3 -7 -1 -13 6 -13 30 0 173 106
163 121 -3 5 -1 8 4 7 15 -5 65 61 58 77 -9 24 -87 53 -174 65 -89 12 -105 8
-147 -34 -42 -43 -125 -114 -125 -108 0 3 35 77 79 166 43 89 94 200 112 248
32 83 35 87 69 93 19 3 48 8 65 12 26 5 28 4 17 -10 -8 -9 -36 -23 -63 -32
-54 -18 -55 -25 -5 -49 81 -38 187 -11 265 68 37 38 111 150 111 168 0 17 -48
31 -138 38 -77 7 -102 6 -124 -6 -16 -8 -26 -18 -24 -23 3 -4 -25 -36 -61 -72
-36 -35 -63 -56 -59 -46 15 44 85 328 96 390 12 64 9 105 -3 55z m-452 -998
c-3 -5 -12 -10 -18 -10 -7 0 -6 4 3 10 19 12 23 12 15 0z m405 5 c0 -6 -73
-25 -78 -20 -3 3 6 9 19 14 26 10 59 14 59 6z m-330 -45 c0 -5 -5 -10 -11 -10
-5 0 -7 5 -4 10 3 6 8 10 11 10 2 0 4 -4 4 -10z m118 -65 c26 5 26 5 4 -5 -30
-13 -42 -5 -41 23 2 22 2 22 6 -1 4 -18 9 -21 31 -17z m107 -15 c3 -5 -1 -10
-9 -10 -9 0 -16 5 -16 10 0 6 4 10 9 10 6 0 13 -4 16 -10z"/>
<path d="M887 3818 c2 -5 20 -8 39 -8 19 0 34 3 34 8 0 4 -18 7 -39 7 -22 0
-37 -3 -34 -7z"/>
<path d="M1055 3758 c8 -48 88 -362 100 -393 5 -11 -22 12 -58 50 -37 39 -67
73 -67 77 0 4 -10 14 -22 22 -19 12 -42 13 -124 6 -55 -4 -110 -14 -122 -21
l-21 -13 31 -59 c68 -127 162 -197 266 -197 37 0 66 7 93 22 l38 21 -56 23
c-79 32 -89 46 -28 38 85 -12 89 -15 119 -101 15 -43 63 -151 107 -240 43 -89
79 -165 79 -169 0 -3 -18 10 -39 29 -22 20 -51 43 -65 52 -14 10 -26 23 -26
30 0 7 -12 18 -27 24 -61 25 -293 -29 -293 -68 0 -17 73 -91 82 -85 6 4 8 2 5
-3 -9 -14 61 -75 75 -67 6 4 8 3 5 -3 -12 -19 87 -53 153 -53 47 0 69 5 99 25
49 30 56 41 31 48 -20 5 -29 -8 -10 -15 6 -2 0 -9 -12 -17 -21 -13 -22 -13 -9
2 12 15 11 17 -10 18 -22 0 -22 1 -4 8 15 6 11 9 -23 14 -26 5 -42 13 -42 21
0 11 18 15 73 18 64 3 73 1 74 -14 2 -26 36 -68 51 -63 6 2 12 1 12 -3 0 -5 7
-17 15 -28 14 -16 14 -15 0 14 -9 19 -20 30 -27 26 -7 -4 -8 -3 -4 4 4 6 -3
29 -16 51 l-22 39 29 62 c27 58 105 182 105 169 0 -3 -15 -39 -34 -80 -19 -41
-41 -100 -49 -132 l-16 -59 22 6 c12 3 26 6 30 6 5 0 5 5 1 12 -4 7 -3 8 4 4
18 -11 37 4 21 16 -10 7 -8 8 7 3 16 -4 29 3 52 30 42 47 63 121 68 238 l4 97
-43 1 c-63 2 -68 0 -120 -39 -71 -54 -98 -117 -98 -223 l0 -84 -35 65 c-44 82
-122 253 -159 347 l-28 73 25 37 c35 53 130 165 135 160 2 -3 -16 -33 -40 -68
-42 -60 -97 -154 -97 -164 0 -12 58 -3 95 14 87 39 158 168 159 291 l1 45 -59
7 c-58 8 -61 7 -104 -27 -24 -19 -55 -49 -68 -67 -26 -35 -54 -116 -54 -157 0
-15 -4 -21 -9 -16 -8 10 -78 253 -101 353 -15 63 -35 71 -25 10z m120 -951 c7
-7 4 -8 -8 -3 -10 3 -25 6 -33 6 -8 0 -14 5 -14 11 0 12 40 2 55 -14z m132
-73 c-3 -3 -12 -4 -19 -1 -8 3 -5 6 6 6 11 1 17 -2 13 -5z m-103 -36 c-3 -4
-11 -5 -19 -1 -21 7 -19 12 4 10 11 0 18 -5 15 -9z m127 3 c-7 -5 -36 -8 -65
-8 -44 0 -46 1 -16 6 60 10 96 11 81 2z"/>
<path d="M6310 3620 c-1 -3 -3 -16 -6 -30 -3 -21 -2 -22 7 -7 6 10 8 23 5 30
-2 7 -5 10 -6 7z"/>
<path d="M1859 2775 c-30 -16 -44 -42 -24 -42 8 0 13 5 12 11 -1 6 14 11 35
10 20 0 34 4 32 8 -3 5 -15 6 -27 2 -19 -6 -20 -5 -8 10 16 19 14 19 -20 1z"/>
<path d="M6083 2763 c0 -9 4 -10 12 -3 7 6 21 7 30 3 13 -4 16 -3 11 5 -9 16
-53 11 -53 -5z"/>
<path d="M6165 2730 c10 -11 20 -20 23 -20 3 0 -3 9 -13 20 -10 11 -20 20 -23
20 -3 0 3 -9 13 -20z"/>
<path d="M6206 2687 c3 -10 9 -15 12 -12 3 3 0 11 -7 18 -10 9 -11 8 -5 -6z"/>
<path d="M6718 2673 c7 -3 16 -2 19 1 4 3 -2 6 -13 5 -11 0 -14 -3 -6 -6z"/>
<path d="M1530 2661 c0 -6 4 -13 10 -16 6 -3 7 1 4 9 -7 18 -14 21 -14 7z"/>
<path d="M1490 2455 c0 -7 36 -20 78 -30 45 -9 40 9 -7 23 -41 13 -71 15 -71
7z"/>
<path d="M6423 2449 c-38 -11 -52 -27 -20 -24 12 1 29 3 38 4 8 0 24 8 35 16
19 14 19 14 -1 14 -11 -1 -34 -5 -52 -10z"/>
<path d="M2254 2424 c-18 -14 -18 -14 6 -3 31 14 36 19 24 19 -6 0 -19 -7 -30
-16z"/>
<path d="M5716 2425 c10 -8 24 -14 29 -14 6 0 1 6 -9 14 -11 8 -24 15 -30 15
-5 0 -1 -7 10 -15z"/>
<path d="M1535 2290 c-4 -6 12 -10 42 -10 35 0 44 3 33 10 -20 13 -67 13 -75
0z"/>
<path d="M6370 2290 c-11 -7 -2 -10 33 -10 30 0 46 4 42 10 -8 13 -55 13 -75
0z"/>
<path d="M3034 2261 c-1 -22 3 -31 15 -32 13 0 13 -2 -3 -8 -41 -16 233 -120
437 -165 306 -69 613 -74 926 -14 105 19 111 22 85 33 -18 7 -24 14 -17 18 7
4 10 14 7 21 -3 8 0 16 8 19 7 2 3 2 -10 0 -198 -33 -242 -37 -462 -37 -183
-1 -262 3 -355 18 -161 25 -356 75 -490 126 -60 23 -117 43 -125 46 -11 4 -16
-3 -16 -25z m34 -2 c-11 -7 -10 -9 1 -9 8 0 11 -3 8 -6 -9 -9 -38 16 -32 27 3
4 13 5 21 2 13 -5 13 -7 2 -14z m1395 -146 c-7 -2 -19 -2 -25 0 -7 3 -2 5 12
5 14 0 19 -2 13 -5z"/>
<path d="M2718 2154 c-4 -5 6 -25 21 -43 16 -19 31 -30 34 -24 3 5 -6 25 -22
43 -15 19 -30 29 -33 24z"/>
<path d="M5247 2153 c-3 -5 -15 -26 -27 -48 l-22 -40 27 25 c34 32 48 57 36
65 -5 3 -12 2 -14 -2z"/>
<path d="M1930 2001 c-12 -9 -9 -11 15 -11 17 0 48 -3 70 -6 30 -4 36 -3 24 5
-24 16 -92 23 -109 12z"/>
<path d="M5972 2000 c-48 -11 -54 -24 -7 -17 22 4 54 7 70 7 23 0 27 3 15 10
-17 11 -32 11 -78 0z"/>
<path d="M2220 1972 c0 -5 10 -17 21 -28 22 -19 22 -19 10 3 -12 24 -31 39
-31 25z"/>
<path d="M5742 1968 c-14 -14 -16 -28 -2 -28 5 0 14 9 20 20 12 22 1 27 -18 8z"/>
<path d="M2300 1901 c46 -39 233 -151 259 -156 12 -2 27 -7 34 -10 6 -4 3 1
-7 9 -11 9 -24 16 -28 16 -5 0 -14 4 -21 10 -7 5 -63 43 -126 85 -115 75 -179
102 -111 46z"/>
<path d="M5600 1872 c-47 -32 -110 -73 -140 -91 -90 -56 -40 -46 56 10 88 52
194 125 194 134 0 14 -34 -2 -110 -53z"/>
<path d="M1970 1839 c-11 -7 -1 -8 35 -3 28 4 52 8 54 10 10 9 -76 3 -89 -7z"/>
<path d="M5955 1839 c22 -4 49 -8 60 -8 l20 0 -20 9 c-11 5 -38 8 -60 8 l-40
0 40 -9z"/>
<path d="M2470 1630 c-11 -7 3 -10 47 -10 34 0 65 5 68 10 8 13 -95 13 -115 0z"/>
<path d="M5410 1630 c20 -13 103 -13 95 0 -3 6 -30 10 -58 10 -37 0 -48 -3
-37 -10z"/>
<path d="M2530 1478 c-19 -6 -30 -12 -25 -14 6 -2 30 2 55 10 25 8 36 14 25
14 -11 0 -36 -4 -55 -10z"/>
<path d="M5400 1481 c8 -5 33 -12 55 -15 l40 -6 -35 14 c-40 17 -85 21 -60 7z"/>
<path d="M4418 1353 c-10 -2 -18 -9 -18 -14 0 -6 -4 -8 -9 -4 -14 8 -81 -27
-74 -38 3 -6 1 -7 -4 -4 -6 4 -46 -13 -89 -38 -46 -26 -92 -45 -110 -45 -17 0
-80 9 -141 20 -61 11 -126 22 -144 24 -19 3 -43 8 -54 11 -11 4 -5 -3 13 -15
44 -30 40 -34 -10 -10 -42 21 -42 21 -18 1 14 -11 40 -28 58 -38 36 -20 36
-20 3 -100 -18 -47 -19 -52 -3 -42 9 6 28 28 42 50 22 36 50 52 50 30 0 -6 8
-9 18 -9 9 1 29 -1 44 -5 20 -5 26 -12 21 -23 -4 -12 -2 -15 8 -12 8 3 13 11
11 17 -3 14 9 14 43 1 19 -7 24 -7 19 1 -5 8 -1 8 14 0 31 -16 62 -14 62 5 0
14 2 15 18 3 15 -12 16 -12 6 1 -23 31 -23 60 -1 74 12 7 77 45 145 85 67 39
122 74 122 76 0 3 -1 4 -2 4 -2 -1 -11 -3 -20 -6z"/>
</g>
</svg>
